<?xml version="1.0" encoding="UTF-8" standalone="no"?>
<svg
   xmlns:dc="http://purl.org/dc/elements/1.1/"
   xmlns:cc="http://creativecommons.org/ns#"
   xmlns:rdf="http://www.w3.org/1999/02/22-rdf-syntax-ns#"
   xmlns:svg="http://www.w3.org/2000/svg"
   xmlns="http://www.w3.org/2000/svg"
   xmlns:sodipodi="http://sodipodi.sourceforge.net/DTD/sodipodi-0.dtd"
   xmlns:inkscape="http://www.inkscape.org/namespaces/inkscape"
   width="340.38037mm"
   height="110.16019mm"
   viewBox="0 0 340.38037 110.16018"
   version="1.1"
   id="svg8"
   inkscape:version="1.0 (4035a4fb49, 2020-05-01)"
   sodipodi:docname="online_setup.svg">
  <defs
     id="defs2">
    <marker
       inkscape:stockid="Arrow1Mend"
       orient="auto"
       refY="0"
       refX="0"
       id="marker2167"
       style="overflow:visible"
       inkscape:isstock="true">
      <path
         id="path2165"
         d="M 0,0 5,-5 -12.5,0 5,5 Z"
         style="fill:#000000;fill-opacity:1;fill-rule:evenodd;stroke:#000000;stroke-width:1pt;stroke-opacity:1"
         transform="matrix(-0.4,0,0,-0.4,-4,0)" />
    </marker>
    <marker
       inkscape:isstock="true"
       style="overflow:visible"
       id="marker1915"
       refX="0"
       refY="0"
       orient="auto"
       inkscape:stockid="Arrow1Mend"
       inkscape:collect="always">
      <path
         transform="matrix(-0.4,0,0,-0.4,-4,0)"
         style="fill:#ffffff;fill-opacity:1;fill-rule:evenodd;stroke:#4901ff;stroke-width:1pt;stroke-opacity:1"
         d="M 0,0 5,-5 -12.5,0 5,5 Z"
         id="path1913" />
    </marker>
    <marker
       inkscape:stockid="Arrow1Mend"
       orient="auto"
       refY="0"
       refX="0"
       id="marker1833"
       style="overflow:visible"
       inkscape:isstock="true"
       inkscape:collect="always">
      <path
         id="path1831"
         d="M 0,0 5,-5 -12.5,0 5,5 Z"
         style="fill:#ffffff;fill-opacity:1;fill-rule:evenodd;stroke:#4901ff;stroke-width:1pt;stroke-opacity:1"
         transform="matrix(-0.4,0,0,-0.4,-4,0)" />
    </marker>
    <marker
       inkscape:isstock="true"
       style="overflow:visible"
       id="marker1757"
       refX="0"
       refY="0"
       orient="auto"
       inkscape:stockid="Arrow1Mend"
       inkscape:collect="always">
      <path
         transform="matrix(-0.4,0,0,-0.4,-4,0)"
         style="fill:#ffffff;fill-opacity:1;fill-rule:evenodd;stroke:#4901ff;stroke-width:1pt;stroke-opacity:1"
         d="M 0,0 5,-5 -12.5,0 5,5 Z"
         id="path1755" />
    </marker>
    <marker
       inkscape:stockid="Arrow1Mend"
       orient="auto"
       refY="0"
       refX="0"
       id="marker1687"
       style="overflow:visible"
       inkscape:isstock="true"
       inkscape:collect="always">
      <path
         id="path1685"
         d="M 0,0 5,-5 -12.5,0 5,5 Z"
         style="fill:#ff0000;fill-opacity:1;fill-rule:evenodd;stroke:#ff0000;stroke-width:1pt;stroke-opacity:1"
         transform="matrix(-0.4,0,0,-0.4,-4,0)" />
    </marker>
    <marker
       inkscape:isstock="true"
       style="overflow:visible"
       id="marker1623"
       refX="0"
       refY="0"
       orient="auto"
       inkscape:stockid="Arrow1Mend"
       inkscape:collect="always">
      <path
         transform="matrix(-0.4,0,0,-0.4,-4,0)"
         style="fill:#ff0000;fill-opacity:1;fill-rule:evenodd;stroke:#ff0000;stroke-width:1pt;stroke-opacity:1"
         d="M 0,0 5,-5 -12.5,0 5,5 Z"
         id="path1621" />
    </marker>
    <marker
       inkscape:stockid="Arrow1Mend"
       orient="auto"
       refY="0"
       refX="0"
       id="marker1565"
       style="overflow:visible"
       inkscape:isstock="true"
       inkscape:collect="always">
      <path
         id="path1563"
         d="M 0,0 5,-5 -12.5,0 5,5 Z"
         style="fill:#ff0000;fill-opacity:1;fill-rule:evenodd;stroke:#ff0000;stroke-width:1pt;stroke-opacity:1"
         transform="matrix(-0.4,0,0,-0.4,-4,0)" />
    </marker>
    <marker
       inkscape:isstock="true"
       style="overflow:visible"
       id="marker1513"
       refX="0"
       refY="0"
       orient="auto"
       inkscape:stockid="Arrow1Mend"
       inkscape:collect="always">
      <path
         transform="matrix(-0.4,0,0,-0.4,-4,0)"
         style="fill:#8800fe;fill-opacity:1;fill-rule:evenodd;stroke:#8800fe;stroke-width:1pt;stroke-opacity:1"
         d="M 0,0 5,-5 -12.5,0 5,5 Z"
         id="path1511" />
    </marker>
    <marker
       inkscape:stockid="Arrow1Mstart"
       orient="auto"
       refY="0"
       refX="0"
       id="Arrow1Mstart"
       style="overflow:visible"
       inkscape:isstock="true">
      <path
         id="path1097"
         d="M 0,0 5,-5 -12.5,0 5,5 Z"
         style="fill:#000000;fill-opacity:1;fill-rule:evenodd;stroke:#000000;stroke-width:1pt;stroke-opacity:1"
         transform="matrix(0.4,0,0,0.4,4,0)" />
    </marker>
    <marker
       inkscape:stockid="Arrow1Mend"
       orient="auto"
       refY="0"
       refX="0"
       id="marker1423"
       style="overflow:visible"
       inkscape:isstock="true"
       inkscape:collect="always">
      <path
         id="path1421"
         d="M 0,0 5,-5 -12.5,0 5,5 Z"
         style="fill:#8800fe;fill-opacity:1;fill-rule:evenodd;stroke:#8800fe;stroke-width:1pt;stroke-opacity:1"
         transform="matrix(-0.4,0,0,-0.4,-4,0)" />
    </marker>
    <marker
       inkscape:isstock="true"
       style="overflow:visible"
       id="marker1389"
       refX="0"
       refY="0"
       orient="auto"
       inkscape:stockid="Arrow1Mend"
       inkscape:collect="always">
      <path
         transform="matrix(-0.4,0,0,-0.4,-4,0)"
         style="fill:#8800fe;fill-opacity:1;fill-rule:evenodd;stroke:#8800fe;stroke-width:1pt;stroke-opacity:1"
         d="M 0,0 5,-5 -12.5,0 5,5 Z"
         id="path1387" />
    </marker>
    <marker
       inkscape:stockid="Arrow1Mend"
       orient="auto"
       refY="0"
       refX="0"
       id="Arrow1Mend"
       style="overflow:visible"
       inkscape:isstock="true"
       inkscape:collect="always">
      <path
         id="path1100"
         d="M 0,0 5,-5 -12.5,0 5,5 Z"
         style="fill:#8800fe;fill-opacity:1;fill-rule:evenodd;stroke:#8800fe;stroke-width:1pt;stroke-opacity:1"
         transform="matrix(-0.4,0,0,-0.4,-4,0)" />
    </marker>
    <marker
       inkscape:stockid="Arrow1Lstart"
       orient="auto"
       refY="0"
       refX="0"
       id="Arrow1Lstart"
       style="overflow:visible"
       inkscape:isstock="true">
      <path
         id="path1091"
         d="M 0,0 5,-5 -12.5,0 5,5 Z"
         style="fill:#000000;fill-opacity:1;fill-rule:evenodd;stroke:#000000;stroke-width:1pt;stroke-opacity:1"
         transform="matrix(0.8,0,0,0.8,10,0)" />
    </marker>
    <marker
       inkscape:collect="always"
       inkscape:stockid="Arrow1Mend"
       orient="auto"
       refY="0"
       refX="0"
       id="marker1389-3"
       style="overflow:visible"
       inkscape:isstock="true">
      <path
         id="path1387-0"
         d="M 0,0 5,-5 -12.5,0 5,5 Z"
         style="fill:#8800fe;fill-opacity:1;fill-rule:evenodd;stroke:#8800fe;stroke-width:1pt;stroke-opacity:1"
         transform="matrix(-0.4,0,0,-0.4,-4,0)" />
    </marker>
    <marker
       inkscape:collect="always"
       inkscape:stockid="Arrow1Mend"
       orient="auto"
       refY="0"
       refX="0"
       id="marker1623-8"
       style="overflow:visible"
       inkscape:isstock="true">
      <path
         id="path1621-6"
         d="M 0,0 5,-5 -12.5,0 5,5 Z"
         style="fill:#ff0000;fill-opacity:1;fill-rule:evenodd;stroke:#ff0000;stroke-width:1pt;stroke-opacity:1"
         transform="matrix(-0.4,0,0,-0.4,-4,0)" />
    </marker>
    <marker
       inkscape:collect="always"
       inkscape:stockid="Arrow1Mend"
       orient="auto"
       refY="0"
       refX="0"
       id="marker1757-8"
       style="overflow:visible"
       inkscape:isstock="true">
      <path
         id="path1755-4"
         d="M 0,0 5,-5 -12.5,0 5,5 Z"
         style="fill:#ffffff;fill-opacity:1;fill-rule:evenodd;stroke:#4901ff;stroke-width:1pt;stroke-opacity:1"
         transform="matrix(-0.4,0,0,-0.4,-4,0)" />
    </marker>
    <marker
       inkscape:collect="always"
       inkscape:stockid="Arrow1Mend"
       orient="auto"
       refY="0"
       refX="0"
       id="marker1623-7"
       style="overflow:visible"
       inkscape:isstock="true">
      <path
         id="path1621-0"
         d="M 0,0 5,-5 -12.5,0 5,5 Z"
         style="fill:#ff0000;fill-opacity:1;fill-rule:evenodd;stroke:#ff0000;stroke-width:1pt;stroke-opacity:1"
         transform="matrix(-0.4,0,0,-0.4,-4,0)" />
    </marker>
    <marker
       inkscape:collect="always"
       inkscape:stockid="Arrow1Mend"
       orient="auto"
       refY="0"
       refX="0"
       id="marker1623-3"
       style="overflow:visible"
       inkscape:isstock="true">
      <path
         id="path1621-60"
         d="M 0,0 5,-5 -12.5,0 5,5 Z"
         style="fill:#ff0000;fill-opacity:1;fill-rule:evenodd;stroke:#ff0000;stroke-width:1pt;stroke-opacity:1"
         transform="matrix(-0.4,0,0,-0.4,-4,0)" />
    </marker>
    <marker
       inkscape:isstock="true"
       style="overflow:visible"
       id="marker1623-8-7"
       refX="0"
       refY="0"
       orient="auto"
       inkscape:stockid="Arrow1Mend"
       inkscape:collect="always">
      <path
         transform="matrix(-0.4,0,0,-0.4,-4,0)"
         style="fill:#ff0000;fill-opacity:1;fill-rule:evenodd;stroke:#ff0000;stroke-width:1pt;stroke-opacity:1"
         d="M 0,0 5,-5 -12.5,0 5,5 Z"
         id="path1621-6-9" />
    </marker>
    <marker
       inkscape:isstock="true"
       style="overflow:visible"
       id="marker2167-7"
       refX="0"
       refY="0"
       orient="auto"
       inkscape:stockid="Arrow1Mend">
      <path
         transform="matrix(-0.4,0,0,-0.4,-4,0)"
         style="fill:#000000;fill-opacity:1;fill-rule:evenodd;stroke:#000000;stroke-width:1pt;stroke-opacity:1"
         d="M 0,0 5,-5 -12.5,0 5,5 Z"
         id="path2165-3" />
    </marker>
    <marker
       inkscape:collect="always"
       inkscape:isstock="true"
       style="overflow:visible"
       id="marker1833-1"
       refX="0"
       refY="0"
       orient="auto"
       inkscape:stockid="Arrow1Mend">
      <path
         transform="matrix(-0.4,0,0,-0.4,-4,0)"
         style="fill:#ffffff;fill-opacity:1;fill-rule:evenodd;stroke:#4901ff;stroke-width:1pt;stroke-opacity:1"
         d="M 0,0 5,-5 -12.5,0 5,5 Z"
         id="path1831-2" />
    </marker>
  </defs>
  <sodipodi:namedview
     id="base"
     pagecolor="#ffffff"
     bordercolor="#666666"
     borderopacity="1.0"
     inkscape:pageopacity="0.0"
     inkscape:pageshadow="2"
     inkscape:zoom="1.1537292"
     inkscape:cx="722.8174"
     inkscape:cy="206.28663"
     inkscape:document-units="mm"
     inkscape:current-layer="layer1"
     inkscape:document-rotation="0"
     showgrid="false"
     fit-margin-top="5"
     fit-margin-left="5"
     fit-margin-right="5"
     fit-margin-bottom="5"
     showguides="true"
     inkscape:guide-bbox="true"
     inkscape:window-width="1920"
     inkscape:window-height="1029"
     inkscape:window-x="0"
     inkscape:window-y="18"
     inkscape:window-maximized="1" />
  <metadata
     id="metadata5">
    <rdf:RDF>
      <cc:Work
         rdf:about="">
        <dc:format>image/svg+xml</dc:format>
        <dc:type
           rdf:resource="http://purl.org/dc/dcmitype/StillImage" />
        <dc:title></dc:title>
      </cc:Work>
    </rdf:RDF>
  </metadata>
  <g
     inkscape:label="Layer 1"
     inkscape:groupmode="layer"
     id="layer1"
     transform="translate(19.157694,-25.666019)">
    <g
       id="g842"
       transform="translate(53.447687,13.368405)">
      <rect
         y="57.374378"
         x="210.5766"
         height="20.892632"
         width="31.702751"
         id="rect10"
         style="fill:none;stroke:#000000;stroke-width:1;stroke-linejoin:round;stroke-miterlimit:4;stroke-dasharray:none;paint-order:stroke fill markers" />
      <text
         id="text837"
         y="69.661751"
         x="221.87357"
         style="font-size:5.64444px;line-height:1;font-family:'Liberation Serif';-inkscape-font-specification:'Liberation Serif';letter-spacing:0px;word-spacing:0px;writing-mode:lr-tb;stroke-width:0.264583"
         xml:space="preserve"><tspan
           style="stroke-width:0.264583"
           y="69.661751"
           x="221.87357"
           id="tspan835"
           sodipodi:role="line">Jitsi</tspan></text>
    </g>
    <g
       id="g842-35"
       transform="translate(4.2251183,-1.9774309)">
      <rect
         style="fill:none;stroke:#000000;stroke-width:1;stroke-linejoin:round;stroke-miterlimit:4;stroke-dasharray:none;paint-order:stroke fill markers"
         id="rect10-62"
         width="31.702751"
         height="20.892632"
         x="210.5766"
         y="57.374378" />
      <text
         xml:space="preserve"
         style="font-size:5.64444px;line-height:1;font-family:'Liberation Serif';-inkscape-font-specification:'Liberation Serif';letter-spacing:0px;word-spacing:0px;writing-mode:lr-tb;stroke-width:0.264583"
         x="221.87357"
         y="69.661751"
         id="text837-9"><tspan
           sodipodi:role="line"
           id="tspan835-1"
           x="221.87357"
           y="69.661751"
           style="stroke-width:0.264583">Jibri</tspan></text>
    </g>
    <g
       id="g842-2"
       transform="translate(4.2251183,28.126785)">
      <rect
         style="fill:none;stroke:#000000;stroke-width:1;stroke-linejoin:round;stroke-miterlimit:4;stroke-dasharray:none;paint-order:stroke fill markers"
         id="rect10-7"
         width="31.702751"
         height="20.892632"
         x="210.5766"
         y="57.374378" />
      <text
         xml:space="preserve"
         style="font-size:5.64444px;line-height:1;font-family:'Liberation Serif';-inkscape-font-specification:'Liberation Serif';letter-spacing:0px;word-spacing:0px;writing-mode:lr-tb;stroke-width:0.264583"
         x="221.87357"
         y="69.661751"
         id="text837-0"><tspan
           sodipodi:role="line"
           id="tspan835-9"
           x="221.87357"
           y="69.661751"
           style="stroke-width:0.264583">Jibri</tspan></text>
    </g>
    <g
       id="g842-36"
       transform="translate(-59.037854,47.165117)">
      <rect
         style="fill:none;stroke:#000000;stroke-width:1;stroke-linejoin:round;stroke-miterlimit:4;stroke-dasharray:none;paint-order:stroke fill markers"
         id="rect10-0"
         width="31.702751"
         height="20.892632"
         x="219.28993"
         y="57.866337" />
      <text
         xml:space="preserve"
         style="font-size:5.64444px;line-height:1;font-family:'Liberation Serif';-inkscape-font-specification:'Liberation Serif';text-align:center;letter-spacing:0px;word-spacing:0px;writing-mode:lr-tb;text-anchor:middle;stroke-width:0.264583"
         x="235.09445"
         y="67.421066"
         id="text837-6"><tspan
           sodipodi:role="line"
           x="235.09445"
           y="67.421066"
           style="text-align:center;text-anchor:middle;stroke-width:0.264583"
           id="tspan964">Pre-Recorded</tspan><tspan
           id="tspan1785"
           sodipodi:role="line"
           x="235.09445"
           y="73.065506"
           style="text-align:center;text-anchor:middle;stroke-width:0.264583">Talk</tspan></text>
    </g>
    <g
       id="g842-6"
       transform="translate(-96.154777,13.368405)">
      <rect
         style="fill:none;stroke:#000000;stroke-width:1;stroke-linejoin:round;stroke-miterlimit:4;stroke-dasharray:none;paint-order:stroke fill markers"
         id="rect10-1"
         width="31.702751"
         height="20.892632"
         x="211.45303"
         y="57.374378" />
      <text
         xml:space="preserve"
         style="font-size:5.64444px;line-height:1;font-family:'Liberation Serif';-inkscape-font-specification:'Liberation Serif';letter-spacing:0px;word-spacing:0px;writing-mode:lr-tb;stroke-width:0.264583"
         x="216.05281"
         y="69.661751"
         id="text837-8"><tspan
           sodipodi:role="line"
           id="tspan835-7"
           x="216.05281"
           y="69.661751"
           style="stroke-width:0.264583">Voctomix</tspan></text>
    </g>
    <g
       id="g842-9"
       transform="translate(-151.78387,10.546185)">
      <rect
         style="fill:none;stroke:#000000;stroke-width:1;stroke-linejoin:round;stroke-miterlimit:4;stroke-dasharray:none;paint-order:stroke fill markers"
         id="rect10-2"
         width="31.702751"
         height="20.892632"
         x="219.9762"
         y="60.196598" />
      <text
         xml:space="preserve"
         style="font-size:5.64444px;line-height:1;font-family:'Liberation Serif';-inkscape-font-specification:'Liberation Serif';text-align:center;letter-spacing:0px;word-spacing:0px;writing-mode:lr-tb;text-anchor:middle;stroke-width:0.264583"
         x="235.77658"
         y="72.483971"
         id="text837-02"><tspan
           sodipodi:role="line"
           x="235.77658"
           y="72.483971"
           style="text-align:center;text-anchor:middle;stroke-width:0.264583"
           id="tspan966">CDN</tspan></text>
    </g>
    <g
       id="g842-31"
       transform="translate(-192.20215,12.876446)">
      <rect
         style="fill:none;stroke:#000000;stroke-width:1;stroke-linejoin:round;stroke-miterlimit:4;stroke-dasharray:none;paint-order:stroke fill markers"
         id="rect10-9"
         width="31.702751"
         height="20.892632"
         x="213.28857"
         y="57.866337" />
      <text
         xml:space="preserve"
         style="font-size:5.64444px;line-height:1;font-family:'Liberation Serif';-inkscape-font-specification:'Liberation Serif';letter-spacing:0px;word-spacing:0px;writing-mode:lr-tb;stroke-width:0.264583"
         x="221.87357"
         y="69.661751"
         id="text837-4"><tspan
           sodipodi:role="line"
           id="tspan835-78"
           x="221.87357"
           y="69.661751"
           style="stroke-width:0.264583">Player</tspan></text>
    </g>
    <rect
       style="fill:none;stroke:#000000;stroke-width:1;stroke-linejoin:round;stroke-miterlimit:4;stroke-dasharray:1, 2;stroke-dashoffset:0;paint-order:stroke fill markers"
       id="rect968"
       width="50.125168"
       height="77.535683"
       x="205.5905"
       y="49.167885" />
    <text
       xml:space="preserve"
       style="font-size:5.64444px;line-height:1;font-family:'Liberation Serif';-inkscape-font-specification:'Liberation Serif';letter-spacing:0px;word-spacing:0px;writing-mode:lr-tb;stroke-width:0.264583"
       x="208.28342"
       y="118.12658"
       id="text972"><tspan
         sodipodi:role="line"
         id="tspan970"
         x="208.28342"
         y="118.12658"
         style="stroke-width:0.264583">Streaming Network</tspan></text>
    <g
       id="g986"
       transform="matrix(0.59566687,0,0,0.59566687,9.9779669,21.093928)">
      <ellipse
         ry="3.7201874"
         rx="4.1050439"
         cy="50.476128"
         cx="-8.3675718"
         id="path974"
         style="fill:none;stroke:#000000;stroke-width:0.335758;stroke-linejoin:round;stroke-miterlimit:4;stroke-dasharray:none;stroke-dashoffset:0;paint-order:stroke fill markers" />
      <path
         sodipodi:nodetypes="cc"
         id="path976"
         d="M -8.3675719,54.156924 V 72.738566"
         style="fill:none;stroke:#000000;stroke-width:0.335758;stroke-linecap:butt;stroke-linejoin:miter;stroke-miterlimit:4;stroke-dasharray:none;stroke-opacity:1" />
      <path
         id="path978"
         d="M -16.183655,61.815762 H -0.55148833"
         style="fill:none;stroke:#000000;stroke-width:0.335758;stroke-linecap:butt;stroke-linejoin:miter;stroke-miterlimit:4;stroke-dasharray:none;stroke-opacity:1" />
      <path
         sodipodi:nodetypes="ccc"
         id="path980"
         d="M -15.603625,83.3233 -8.3675719,72.738566 -1.134069,83.285114"
         style="fill:none;stroke:#000000;stroke-width:0.335758;stroke-linecap:butt;stroke-linejoin:miter;stroke-miterlimit:4;stroke-dasharray:none;stroke-opacity:1" />
    </g>
    <g
       transform="matrix(0.59566688,0,0,0.59566688,9.2944227,59.679617)"
       id="g986-4">
      <ellipse
         style="fill:none;stroke:#000000;stroke-width:0.335758;stroke-linejoin:round;stroke-miterlimit:4;stroke-dasharray:none;stroke-dashoffset:0;paint-order:stroke fill markers"
         id="path974-5"
         cx="-8.3675718"
         cy="50.476128"
         rx="4.1050439"
         ry="3.7201874" />
      <path
         style="fill:none;stroke:#000000;stroke-width:0.335758;stroke-linecap:butt;stroke-linejoin:miter;stroke-miterlimit:4;stroke-dasharray:none;stroke-opacity:1"
         d="M -8.3675719,54.156924 V 72.738566"
         id="path976-0"
         sodipodi:nodetypes="cc" />
      <path
         style="fill:none;stroke:#000000;stroke-width:0.335758;stroke-linecap:butt;stroke-linejoin:miter;stroke-miterlimit:4;stroke-dasharray:none;stroke-opacity:1"
         d="M -16.183655,61.815762 H -0.55148833"
         id="path978-3" />
      <path
         style="fill:none;stroke:#000000;stroke-width:0.335758;stroke-linecap:butt;stroke-linejoin:miter;stroke-miterlimit:4;stroke-dasharray:none;stroke-opacity:1"
         d="M -15.603625,83.3233 -8.3675719,72.738566 -1.134069,83.285114"
         id="path980-6"
         sodipodi:nodetypes="ccc" />
    </g>
    <g
       transform="matrix(0.59566688,0,0,0.59566688,316.05869,20.28936)"
       id="g986-1">
      <ellipse
         style="fill:none;stroke:#000000;stroke-width:0.335758;stroke-linejoin:round;stroke-miterlimit:4;stroke-dasharray:none;stroke-dashoffset:0;paint-order:stroke fill markers"
         id="path974-0"
         cx="-8.3675718"
         cy="50.476128"
         rx="4.1050439"
         ry="3.7201874" />
      <path
         style="fill:none;stroke:#000000;stroke-width:0.335758;stroke-linecap:butt;stroke-linejoin:miter;stroke-miterlimit:4;stroke-dasharray:none;stroke-opacity:1"
         d="M -8.3675719,54.156924 V 72.738566"
         id="path976-6"
         sodipodi:nodetypes="cc" />
      <path
         style="fill:none;stroke:#000000;stroke-width:0.335758;stroke-linecap:butt;stroke-linejoin:miter;stroke-miterlimit:4;stroke-dasharray:none;stroke-opacity:1"
         d="M -16.183655,61.815762 H -0.55148833"
         id="path978-32" />
      <path
         style="fill:none;stroke:#000000;stroke-width:0.335758;stroke-linecap:butt;stroke-linejoin:miter;stroke-miterlimit:4;stroke-dasharray:none;stroke-opacity:1"
         d="M -15.603625,83.3233 -8.3675719,72.738566 -1.134069,83.285114"
         id="path980-0"
         sodipodi:nodetypes="ccc" />
    </g>
    <g
       transform="matrix(0.59566688,0,0,0.59566688,316.55118,51.587652)"
       id="g986-6">
      <ellipse
         style="fill:none;stroke:#000000;stroke-width:0.335758;stroke-linejoin:round;stroke-miterlimit:4;stroke-dasharray:none;stroke-dashoffset:0;paint-order:stroke fill markers"
         id="path974-1"
         cx="-8.3675718"
         cy="50.476128"
         rx="4.1050439"
         ry="3.7201874" />
      <path
         style="fill:none;stroke:#000000;stroke-width:0.335758;stroke-linecap:butt;stroke-linejoin:miter;stroke-miterlimit:4;stroke-dasharray:none;stroke-opacity:1"
         d="M -8.3675719,54.156924 V 72.738566"
         id="path976-5"
         sodipodi:nodetypes="cc" />
      <path
         style="fill:none;stroke:#000000;stroke-width:0.335758;stroke-linecap:butt;stroke-linejoin:miter;stroke-miterlimit:4;stroke-dasharray:none;stroke-opacity:1"
         d="M -16.183655,61.815762 H -0.55148833"
         id="path978-5" />
      <path
         style="fill:none;stroke:#000000;stroke-width:0.335758;stroke-linecap:butt;stroke-linejoin:miter;stroke-miterlimit:4;stroke-dasharray:none;stroke-opacity:1"
         d="M -15.603625,83.3233 -8.3675719,72.738566 -1.134069,83.285114"
         id="path980-4"
         sodipodi:nodetypes="ccc" />
    </g>
    <g
       transform="matrix(0.59566688,0,0,0.59566688,-4.5176264,42.468934)"
       id="g986-74">
      <ellipse
         style="fill:none;stroke:#000000;stroke-width:0.335758;stroke-linejoin:round;stroke-miterlimit:4;stroke-dasharray:none;stroke-dashoffset:0;paint-order:stroke fill markers"
         id="path974-52"
         cx="-8.3675718"
         cy="50.476128"
         rx="4.1050439"
         ry="3.7201874" />
      <path
         style="fill:none;stroke:#000000;stroke-width:0.335758;stroke-linecap:butt;stroke-linejoin:miter;stroke-miterlimit:4;stroke-dasharray:none;stroke-opacity:1"
         d="M -8.3675719,54.156924 V 72.738566"
         id="path976-54"
         sodipodi:nodetypes="cc" />
      <path
         style="fill:none;stroke:#000000;stroke-width:0.335758;stroke-linecap:butt;stroke-linejoin:miter;stroke-miterlimit:4;stroke-dasharray:none;stroke-opacity:1"
         d="M -16.183655,61.815762 H -0.55148833"
         id="path978-7" />
      <path
         style="fill:none;stroke:#000000;stroke-width:0.335758;stroke-linecap:butt;stroke-linejoin:miter;stroke-miterlimit:4;stroke-dasharray:none;stroke-opacity:1"
         d="M -15.603625,83.3233 -8.3675719,72.738566 -1.134069,83.285114"
         id="path980-44"
         sodipodi:nodetypes="ccc" />
    </g>
    <g
       id="g2017">
      <g
         id="g986-7"
         transform="matrix(0.59566688,0,0,0.59566688,136.13392,10.963379)">
        <ellipse
           ry="3.7201874"
           rx="4.1050439"
           cy="50.476128"
           cx="-8.3675718"
           id="path974-6"
           style="fill:none;stroke:#000000;stroke-width:0.335758;stroke-linejoin:round;stroke-miterlimit:4;stroke-dasharray:none;stroke-dashoffset:0;paint-order:stroke fill markers" />
        <path
           sodipodi:nodetypes="cc"
           id="path976-56"
           d="M -8.3675719,54.156924 V 72.738566"
           style="fill:none;stroke:#000000;stroke-width:0.335758;stroke-linecap:butt;stroke-linejoin:miter;stroke-miterlimit:4;stroke-dasharray:none;stroke-opacity:1" />
        <path
           id="path978-9"
           d="M -16.183655,61.815762 H -0.55148833"
           style="fill:none;stroke:#000000;stroke-width:0.335758;stroke-linecap:butt;stroke-linejoin:miter;stroke-miterlimit:4;stroke-dasharray:none;stroke-opacity:1" />
        <path
           sodipodi:nodetypes="ccc"
           id="path980-3"
           d="M -15.603625,83.3233 -8.3675719,72.738566 -1.134069,83.285114"
           style="fill:none;stroke:#000000;stroke-width:0.335758;stroke-linecap:butt;stroke-linejoin:miter;stroke-miterlimit:4;stroke-dasharray:none;stroke-opacity:1" />
      </g>
    </g>
    <path
       style="fill:none;stroke:#4901ff;stroke-width:0.4;stroke-linecap:butt;stroke-linejoin:miter;stroke-miterlimit:4;stroke-dasharray:none;stroke-opacity:1;marker-end:url(#marker1833)"
       d="m 305.1996,61.486365 -6.63692,13.213201"
       id="path1071" />
    <path
       style="fill:none;stroke:#4901ff;stroke-width:0.4;stroke-linecap:butt;stroke-linejoin:miter;stroke-miterlimit:4;stroke-dasharray:none;stroke-opacity:1;marker-end:url(#marker1915)"
       d="m 304.59868,92.225802 -5.8428,-5.275101"
       id="path1073" />
    <path
       style="fill:none;stroke:#4901ff;stroke-width:0.4;stroke-linecap:butt;stroke-linejoin:miter;stroke-miterlimit:4;stroke-dasharray:none;stroke-opacity:1;marker-end:url(#marker1757)"
       d="M 261.8472,81.189099 H 249.95183"
       id="path1075" />
    <path
       sodipodi:nodetypes="cc"
       style="fill:none;stroke:#ff0000;stroke-width:0.4;stroke-linecap:butt;stroke-linejoin:miter;stroke-miterlimit:4;stroke-dasharray:none;stroke-opacity:1;marker-end:url(#marker1687)"
       d="M 211.66587,81.189099 H 153.16353"
       id="path1077" />
    <path
       sodipodi:nodetypes="cc"
       style="fill:none;stroke:#ff0000;stroke-width:0.4;stroke-linecap:butt;stroke-linejoin:miter;stroke-miterlimit:4;stroke-dasharray:none;stroke-opacity:1;marker-end:url(#marker1623)"
       d="M 158.97932,103.40478 148.73489,93.258221"
       id="path1079" />
    <path
       style="fill:none;stroke:#ff0000;stroke-width:0.4;stroke-linecap:butt;stroke-linejoin:miter;stroke-miterlimit:4;stroke-dasharray:none;stroke-opacity:1;marker-end:url(#marker1565)"
       d="M 113.13197,81.189099 H 102.99195"
       id="path1081" />
    <path
       style="fill:none;stroke:#8800fe;stroke-width:0.4;stroke-linecap:butt;stroke-linejoin:miter;stroke-miterlimit:4;stroke-dasharray:none;stroke-opacity:1;marker-end:url(#marker1513)"
       d="M 65.328824,81.189099 H 55.381711"
       id="path1083" />
    <path
       style="fill:none;stroke:#8800fe;stroke-width:0.4;stroke-linecap:butt;stroke-linejoin:miter;stroke-miterlimit:4;stroke-dasharray:none;stroke-opacity:1;marker-end:url(#Arrow1Mend)"
       d="m 10.115973,61.724481 8.682676,7.896985"
       id="path1085"
       sodipodi:nodetypes="cc" />
    <path
       style="fill:none;stroke:#8800fe;stroke-width:0.4;stroke-linecap:butt;stroke-linejoin:miter;stroke-miterlimit:4;stroke-dasharray:none;stroke-opacity:1;marker-end:url(#marker1389)"
       d="M -0.55887945,81.189099 H 17.704425"
       id="path1087" />
    <path
       style="fill:none;stroke:#8800fe;stroke-width:0.4;stroke-linecap:butt;stroke-linejoin:miter;stroke-miterlimit:4;stroke-dasharray:none;stroke-opacity:1;marker-end:url(#marker1423)"
       d="M 10.220663,100.72414 17.24425,91.681931"
       id="path1089"
       sodipodi:nodetypes="cc" />
    <path
       style="fill:none;stroke:#000000;stroke-width:0.264583px;stroke-linecap:butt;stroke-linejoin:miter;stroke-opacity:1;marker-end:url(#marker2167)"
       d="m 131.14963,62.740268 v 5.47716"
       id="path2163" />
    <path
       id="path1087-7"
       d="M 44.775236,112.78912 H 60.842048"
       style="fill:none;stroke:#8800fe;stroke-width:0.4;stroke-linecap:butt;stroke-linejoin:miter;stroke-miterlimit:4;stroke-dasharray:none;stroke-opacity:1;marker-end:url(#marker1389-3)"
       sodipodi:nodetypes="cc" />
    <path
       id="path1079-8"
       d="M 44.762331,120.80721 H 61.015096"
       style="fill:none;stroke:#ff0000;stroke-width:0.4;stroke-linecap:butt;stroke-linejoin:miter;stroke-miterlimit:4;stroke-dasharray:none;stroke-opacity:1;marker-end:url(#marker1623-8)"
       sodipodi:nodetypes="cc" />
    <path
       id="path1075-3"
       d="M 44.775236,128.82529 H 61.293707"
       style="fill:none;stroke:#4901ff;stroke-width:0.4;stroke-linecap:butt;stroke-linejoin:miter;stroke-miterlimit:4;stroke-dasharray:none;stroke-opacity:1;marker-end:url(#marker1757-8)"
       sodipodi:nodetypes="cc" />
    <text
       xml:space="preserve"
       style="font-size:5.64444px;line-height:1;font-family:'Liberation Serif';-inkscape-font-specification:'Liberation Serif';letter-spacing:0px;word-spacing:0px;writing-mode:lr-tb;stroke-width:0.264583"
       x="64.652916"
       y="114.63018"
       id="text9360"><tspan
         sodipodi:role="line"
         id="tspan9358"
         x="64.652916"
         y="114.63018"
         style="stroke-width:0.264583">HLS</tspan></text>
    <text
       xml:space="preserve"
       style="font-size:5.64444px;line-height:1;font-family:'Liberation Serif';-inkscape-font-specification:'Liberation Serif';letter-spacing:0px;word-spacing:0px;writing-mode:lr-tb;stroke-width:0.264583"
       x="64.652916"
       y="122.65516"
       id="text9364"><tspan
         sodipodi:role="line"
         id="tspan9362"
         x="64.652916"
         y="122.65516"
         style="stroke-width:0.264583">RTMP</tspan></text>
    <text
       xml:space="preserve"
       style="font-size:5.64444px;line-height:1;font-family:'Liberation Serif';-inkscape-font-specification:'Liberation Serif';letter-spacing:0px;word-spacing:0px;writing-mode:lr-tb;stroke-width:0.264583"
       x="64.810013"
       y="130.74077"
       id="text9368"><tspan
         sodipodi:role="line"
         id="tspan9366"
         x="64.810013"
         y="130.74077"
         style="stroke-width:0.264583">WebRTC</tspan></text>
    <g
       transform="translate(-59.037854,-18.746159)"
       id="g842-36-3">
      <rect
         y="57.866337"
         x="219.28993"
         height="20.892632"
         width="31.702751"
         id="rect10-0-6"
         style="fill:none;stroke:#000000;stroke-width:1;stroke-linejoin:round;stroke-miterlimit:4;stroke-dasharray:none;paint-order:stroke fill markers" />
      <text
         id="text837-6-7"
         y="70.243286"
         x="235.05035"
         style="font-size:5.64444px;line-height:1;font-family:'Liberation Serif';-inkscape-font-specification:'Liberation Serif';text-align:center;letter-spacing:0px;word-spacing:0px;writing-mode:lr-tb;text-anchor:middle;stroke-width:0.264583"
         xml:space="preserve"><tspan
           id="tspan964-3"
           style="text-align:center;text-anchor:middle;stroke-width:0.264583"
           y="70.243286"
           x="235.05035"
           sodipodi:role="line">Grabber</tspan></text>
    </g>
    <g
       transform="translate(-103.99168,47.165117)"
       id="g842-36-5">
      <rect
         y="57.866337"
         x="219.28993"
         height="20.892632"
         width="31.702751"
         id="rect10-0-62"
         style="fill:none;stroke:#000000;stroke-width:1;stroke-linejoin:round;stroke-miterlimit:4;stroke-dasharray:none;paint-order:stroke fill markers" />
      <text
         id="text837-6-9"
         y="69.559776"
         x="235.17024"
         style="font-size:5.64444px;line-height:1;font-family:'Liberation Serif';-inkscape-font-specification:'Liberation Serif';text-align:center;letter-spacing:0px;word-spacing:0px;writing-mode:lr-tb;text-anchor:middle;stroke-width:0.264583"
         xml:space="preserve"><tspan
           id="tspan964-2"
           style="text-align:center;text-anchor:middle;stroke-width:0.264583"
           y="69.559776"
           x="235.17024"
           sodipodi:role="line">Loop</tspan></text>
    </g>
    <path
       sodipodi:nodetypes="cc"
       id="path1079-9"
       d="m 157.96708,61.992753 -8.71331,6.910012"
       style="fill:none;stroke:#ff0000;stroke-width:0.4;stroke-linecap:butt;stroke-linejoin:miter;stroke-miterlimit:4;stroke-dasharray:none;stroke-opacity:1;marker-end:url(#marker1623-7)" />
    <path
       sodipodi:nodetypes="cc"
       id="path1079-6"
       d="m 131.13518,103.13862 0.0206,-9.27179"
       style="fill:none;stroke:#ff0000;stroke-width:0.4;stroke-linecap:butt;stroke-linejoin:miter;stroke-miterlimit:4;stroke-dasharray:none;stroke-opacity:1;marker-end:url(#marker1623-3)" />
    <g
       transform="translate(-192.20215,-15.852779)"
       id="g842-31-2">
      <rect
         y="57.866337"
         x="213.28857"
         height="20.892632"
         width="31.702751"
         id="rect10-9-6"
         style="fill:none;stroke:#000000;stroke-width:1;stroke-linejoin:round;stroke-miterlimit:4;stroke-dasharray:none;paint-order:stroke fill markers" />
      <text
         id="text837-4-1"
         y="66.729286"
         x="229.17165"
         style="font-size:5.64444px;line-height:1;font-family:'Liberation Serif';-inkscape-font-specification:'Liberation Serif';text-align:center;letter-spacing:0px;word-spacing:0px;writing-mode:lr-tb;text-anchor:middle;stroke-width:0.264583"
         xml:space="preserve"><tspan
           style="text-align:center;text-anchor:middle;stroke-width:0.264583"
           y="66.729286"
           x="229.17165"
           id="tspan835-78-8"
           sodipodi:role="line">RTMP</tspan><tspan
           id="tspan1813"
           style="text-align:center;text-anchor:middle;stroke-width:0.264583"
           y="72.373726"
           x="229.17165"
           sodipodi:role="line">Player</tspan></text>
    </g>
    <path
       sodipodi:nodetypes="cc"
       style="fill:none;stroke:#ff0000;stroke-width:0.4;stroke-linecap:butt;stroke-linejoin:miter;stroke-miterlimit:4;stroke-dasharray:none;stroke-opacity:1;marker-end:url(#marker1623-8-7)"
       d="M 67.154556,70.053064 55.160584,64.032292"
       id="path1079-8-2" />
    <g
       transform="translate(138.19348,0.22951227)"
       id="g2017-0">
      <g
         transform="matrix(0.59566688,0,0,0.59566688,136.13392,10.963379)"
         id="g986-7-2">
        <ellipse
           style="fill:none;stroke:#000000;stroke-width:0.335758;stroke-linejoin:round;stroke-miterlimit:4;stroke-dasharray:none;stroke-dashoffset:0;paint-order:stroke fill markers"
           id="path974-6-3"
           cx="-8.3675718"
           cy="50.476128"
           rx="4.1050439"
           ry="3.7201874" />
        <path
           style="fill:none;stroke:#000000;stroke-width:0.335758;stroke-linecap:butt;stroke-linejoin:miter;stroke-miterlimit:4;stroke-dasharray:none;stroke-opacity:1"
           d="M -8.3675719,54.156924 V 72.738566"
           id="path976-56-7"
           sodipodi:nodetypes="cc" />
        <path
           style="fill:none;stroke:#000000;stroke-width:0.335758;stroke-linecap:butt;stroke-linejoin:miter;stroke-miterlimit:4;stroke-dasharray:none;stroke-opacity:1"
           d="M -16.183655,61.815762 H -0.55148833"
           id="path978-9-5" />
        <path
           style="fill:none;stroke:#000000;stroke-width:0.335758;stroke-linecap:butt;stroke-linejoin:miter;stroke-miterlimit:4;stroke-dasharray:none;stroke-opacity:1"
           d="M -15.603625,83.3233 -8.3675719,72.738566 -1.134069,83.285114"
           id="path980-3-9"
           sodipodi:nodetypes="ccc" />
      </g>
    </g>
    <text
       id="text9360-2"
       y="34.403255"
       x="121.69079"
       style="font-size:5.64444px;line-height:1;font-family:'Liberation Serif';-inkscape-font-specification:'Liberation Serif';letter-spacing:0px;word-spacing:0px;writing-mode:lr-tb;stroke-width:0.264583"
       xml:space="preserve"><tspan
         style="stroke-width:0.264583"
         y="34.403255"
         x="121.69079"
         id="tspan9358-2"
         sodipodi:role="line">Director</tspan></text>
    <text
       id="text9360-8"
       y="37.075191"
       x="255.01566"
       style="font-size:5.64444px;line-height:1;font-family:'Liberation Serif';-inkscape-font-specification:'Liberation Serif';letter-spacing:0px;word-spacing:0px;writing-mode:lr-tb;stroke-width:0.264583"
       xml:space="preserve"><tspan
         style="stroke-width:0.264583"
         y="37.075191"
         x="255.01566"
         id="tspan9358-9"
         sodipodi:role="line">Talk Meister</tspan></text>
    <path
       sodipodi:nodetypes="cc"
       id="path2163-6"
       d="M 261.10031,45.845527 H 195.29523"
       style="fill:none;stroke:#000000;stroke-width:0.264583px;stroke-linecap:butt;stroke-linejoin:miter;stroke-opacity:1;marker-end:url(#marker2167-7)" />
    <path
       sodipodi:nodetypes="cc"
       id="path1071-9"
       d="m 275.41139,57.401078 6.39941,9.681031"
       style="fill:none;stroke:#4901ff;stroke-width:0.4;stroke-linecap:butt;stroke-linejoin:miter;stroke-miterlimit:4;stroke-dasharray:none;stroke-opacity:1;marker-end:url(#marker1833-1)" />
  </g>
</svg>
